[
    {
        "ParameterKey": "SourceS3Bucket",
        "ParameterValue": "growthplay-legend-backend2"
    },
    {
        "ParameterKey": "SourceS3ObjectKey",
        "ParameterValue": "S3APPKEY"
    },
    {
        "ParameterKey": "EBeanstalkApp",
        "ParameterValue": "GrowthPlayLegendDevApp"
    },
    {
        "ParameterKey": "EBeanstalkEnv",
        "ParameterValue": "GrowthplayLegendDevEnv"
    },
    {
        "ParameterKey": "KeyName",
        "ParameterValue": "devbridge"
    },
    {
        "ParameterKey": "SpringProfile",
        "ParameterValue": "awsdev"
    }
]
